[gd_scene load_steps=4 format=2]

[ext_resource path="res://Art/ChapterFont.tres" type="DynamicFont" id=1]
[ext_resource path="res://Walking_Scenes/DoctorScene.gd" type="Script" id=2]
[ext_resource path="res://UI/TextEngine.tscn" type="PackedScene" id=3]

[node name="DoctorScene" type="Node2D"]
script = ExtResource( 2 )

[node name="Button" type="Button" parent="."]
margin_left = 557.184
margin_top = 349.427
margin_right = 1029.18
margin_bottom = 518.427
custom_fonts/font = ExtResource( 1 )
text = "Next Scene"
__meta__ = {
"_edit_use_anchors_": false
}

[node name="TextEngine" parent="." instance=ExtResource( 3 )]

[connection signal="pressed" from="Button" to="." method="_on_Scene_end"]
[connection signal="narrative_event" from="TextEngine" to="." method="_on_Scene_end"]
