[gd_scene load_steps=5 format=2]

[ext_resource path="res://Art/ChapterFont.tres" type="DynamicFont" id=1]
[ext_resource path="res://Walking_Scenes/ShoppingScene.gd" type="Script" id=2]
[ext_resource path="res://UI/TextEngine.tscn" type="PackedScene" id=3]
[ext_resource path="res://Characters/Player.tscn" type="PackedScene" id=4]

[node name="Shopping_Scene" type="Node2D"]
scale = Vector2( 0.5, 0.5 )
script = ExtResource( 2 )

[node name="Button" type="Button" parent="."]
margin_left = 2505.97
margin_top = 1497.77
margin_right = 2977.97
margin_bottom = 1666.77
custom_fonts/font = ExtResource( 1 )
text = "Next Scene"
__meta__ = {
"_edit_use_anchors_": false
}

[node name="TextEngine" parent="." instance=ExtResource( 3 )]

[node name="Label" type="Label" parent="."]
margin_left = 404.985
margin_top = 366.372
margin_right = 1796.99
margin_bottom = 873.372
custom_fonts/font = ExtResource( 1 )
text = "LEVEL UNDER CONSTRUCTION.
SOrry.

In this level, you will shop in a store while 
avoiding the monster as it looks for you"
__meta__ = {
"_edit_use_anchors_": false
}

[node name="Player" parent="." instance=ExtResource( 4 )]
position = Vector2( 1568.35, 1123.88 )

[connection signal="pressed" from="Button" to="." method="_on_Scene_end"]
[connection signal="narrative_event" from="TextEngine" to="." method="_on_TextEngine_narrative_event"]
