[gd_resource type="AtlasTexture" load_steps=2 format=2]

[ext_resource path="res://Art/City_Sprites.png" type="Texture" id=1]

[resource]
flags = 4
atlas = ExtResource( 1 )
region = Rect2( 1024, 256, 192, 128 )
