[gd_scene load_steps=6 format=2]

[ext_resource path="res://Art/StoryFont.tres" type="DynamicFont" id=1]
[ext_resource path="res://UI/TextEngine.gd" type="Script" id=2]
[ext_resource path="res://Art/Lvl2.png" type="Texture" id=3]
[ext_resource path="res://Art/Lvl3.png" type="Texture" id=4]
[ext_resource path="res://Art/Lvl1.png" type="Texture" id=5]

[node name="TextEngine" type="CanvasLayer"]
layer = 3
script = ExtResource( 2 )
player_text_color = Color( 1, 1, 1, 1 )
anxiety_lvl1_text_color = Color( 1, 0.713726, 0.713726, 1 )
anxiety_lvl2_text_color = Color( 1, 0.360784, 0.360784, 1 )
anxiety_lvl3_text_color = Color( 0.784314, 0, 0, 1 )
doctor_text_color = Color( 0, 1, 0.0627451, 1 )
stranger_text_color = Color( 0, 0.929412, 1, 1 )

[node name="Lvl3" type="TextureRect" parent="."]
visible = false
margin_right = 1600.0
margin_bottom = 900.0
texture = ExtResource( 4 )
__meta__ = {
"_edit_use_anchors_": false
}

[node name="Lvl2" type="TextureRect" parent="."]
visible = false
margin_right = 1600.0
margin_bottom = 900.0
texture = ExtResource( 3 )
__meta__ = {
"_edit_use_anchors_": false
}

[node name="Lvl1" type="TextureRect" parent="."]
visible = false
margin_right = 1600.0
margin_bottom = 900.0
texture = ExtResource( 5 )
__meta__ = {
"_edit_use_anchors_": false
}

[node name="ColorRect" type="ColorRect" parent="."]
visible = false
margin_left = 56.0
margin_right = 1544.0
margin_bottom = 136.0
color = Color( 0, 0, 0, 1 )
__meta__ = {
"_edit_use_anchors_": false
}

[node name="VBoxContainer" type="VBoxContainer" parent="ColorRect"]
anchor_right = 1.0
anchor_bottom = 1.0
__meta__ = {
"_edit_use_anchors_": false
}

[node name="Top" type="Label" parent="ColorRect/VBoxContainer"]
margin_right = 1488.0
margin_bottom = 67.0
custom_fonts/font = ExtResource( 1 )
align = 1

[node name="Bottom" type="Label" parent="ColorRect/VBoxContainer"]
margin_top = 71.0
margin_right = 1488.0
margin_bottom = 138.0
custom_fonts/font = ExtResource( 1 )
align = 1
valign = 2
__meta__ = {
"_edit_use_anchors_": false
}
